<?xml version="1.0" encoding="utf-8"?>
<!-- Generator: Adobe Illustrator 16.0.4, SVG Export Plug-In . SVG Version: 6.00 Build 0)  -->
<!DOCTYPE svg PUBLIC "-//W3C//DTD SVG 1.1//EN" "http://www.w3.org/Graphics/SVG/1.1/DTD/svg11.dtd">
<svg version="1.1" id="Livello_1" xmlns="http://www.w3.org/2000/svg" xmlns:xlink="http://www.w3.org/1999/xlink" x="0px" y="0px"
	 width="283.46px" height="175.334px" viewBox="0 0 283.46 175.334" enable-background="new 0 0 283.46 175.334"
	 xml:space="preserve">
<g>
	<path fill-rule="evenodd" clip-rule="evenodd" fill="#13A538" d="M209.094,157.472c-3.494-1.514-7.005-3.514-9.544-6.195
		c-1.606-1.696-2.721-5.332-1.723-7.696c0.626-1.486,3.881-1.966,5.893-1.816c14.818,1.095,26.729-5.121,37.068-14.794
		c8.12-7.596,8.149-18.701-0.178-26.123c-5.051-4.502-11.269-7.692-16.94-11.505c-3.048-2.048-6.401-3.801-9.009-6.319
		c-9.547-9.226-10.535-19.716-2.957-30.703c10.478-15.188,25.371-20.61,43.213-18.56c7.758,0.892,12.729,5.046,12.603,9.432
		c-0.122,4.163-5.049,6.92-13.034,8.03c-4.592,0.638-9.312,1.554-13.535,3.369c-9.154,3.936-10.755,12.217-3.912,19.321
		c2.629,2.73,5.954,4.805,9.033,7.083c2.688,1.99,5.521,3.785,8.214,5.771c17.999,13.286,20.569,31.856,6.51,49.222
		c-8.691,10.733-19.454,18.873-32.729,23.207C223.586,160.656,217.304,161.029,209.094,157.472z"/>
	<path fill-rule="evenodd" clip-rule="evenodd" fill="#007A95" d="M166.14,112.392c1.065-0.038,4.462-16.047,5.095-23.708
		c1.39-16.82,1.82-33.721,2.605-50.589c0.232-5.013,0.153-10.047,0.551-15.045c0.401-5.077,3.972-9.497,7.663-10.09
		c5.312-0.854,10.104,1.347,12.119,6.685c1.502,3.975,2.362,8.428,2.404,12.679c0.276,28.409-3.702,56.438-8.568,84.322
		c-1.742,9.985-4.272,19.975-7.771,29.473c-3.64,9.883-11.792,11.853-19.346,4.526c-4.859-4.711-8.424-11.188-11.269-17.462
		c-5.796-12.789-10.689-25.985-16.017-38.988c-0.714-1.745-2.509-6.723-3.549-6.539c-1.056-0.101-2.69,6.083-3.413,8.486
		c-3.275,10.897-6.248,21.89-9.688,32.732c-2.749,8.666-6.37,16.963-13.509,23.119c-9.839,8.482-17.887,6.678-22.366-5.563
		c-2.34-6.395-4.28-13.164-4.934-19.906c-2.117-21.82-3.671-43.696-5.186-65.568c-0.466-6.733,2.044-10.01,7.389-11.36
		c5.953-1.504,12.142,0.792,14.343,6.268c1.645,4.089,2.498,8.664,2.82,13.087c0.704,9.668,0.663,19.391,1.324,29.064
		c0.212,3.078,0.915,8.559,2.578,9.101c2.525-0.123,3.784-5.587,4.621-8.372c3.856-12.819,7.669-25.648,11.442-38.491
		c1.498-5.095,3.919-9.583,9.56-10.517c5.995-0.992,10.042,2.418,13.298,7.18c10.489,15.346,17.377,32.398,23.802,49.679
		C162.604,107.847,164.607,113.778,166.14,112.392z"/>
	<g>
		<path fill-rule="evenodd" clip-rule="evenodd" fill="#8EABBE" d="M21.097,74.08c2.764-7.469,8.944-11.648,15.945-10.094
			c2.868,0.637,5.905,3.74,7.387,6.511c1.556,2.911,1.718,6.755,1.831,10.213c0.386,11.857,0.396,23.726,0.756,35.584
			c0.085,2.806,0.785,5.637,1.53,8.369c2.427,8.906,5.577,11.046,14.802,10.335c1-0.079,1.994-0.282,2.993-0.306
			c4.735-0.116,6.346,2.012,4.075,6.243c-3.885,7.228-8.848,13.744-17.788,14.66c-9.119,0.933-15.688-3.546-20.214-11.26
			c-7.838-13.356-9.984-28.212-11.48-43.264C20.442,96.115,19.219,79.156,21.097,74.08z"/>
		<circle fill-rule="evenodd" clip-rule="evenodd" fill="#8EABBE" cx="30.479" cy="30.421" r="11.813"/>
	</g>
</g>
</svg>
